{
  "paragraphs": [
    {
      "text": "// Get started",
      "dateUpdated": "Dec 29, 2015 3:45:50 AM",
      "config": {
        "colWidth": 12.0,
        "editorMode": "ace/mode/scala",
        "graph": {
          "mode": "table",
          "height": 300.0,
          "optionOpen": false,
          "keys": [],
          "values": [],
          "groups": [],
          "scatter": {}
        }
      },
      "settings": {
        "params": {},
        "forms": {}
      },
      "jobName": "paragraph_1451360750040_81854855",
      "id": "20151229-034550_993450904",
      "dateCreated": "Dec 29, 2015 3:45:50 AM",
      "status": "READY",
      "errorMessage": "",
      "progressUpdateIntervalMs": 500
    },
    {
      "title": "01. Generate rSA keypair",
      "text": "%sh\n#rm /root/.ssh/id_rsa\n#rm /root/.ssh/id_rsa.pub\necho -e \"Host bitbucket.org\\n\\tStrictHostKeyChecking no\\n\\n\" \u003e ~/.ssh/config\necho -e \"Host github.com\\n\\tStrictHostKeyChecking no\\n\\n\" \u003e\u003e ~/.ssh/config\nssh-keygen -t rsa -f /root/.ssh/id_rsa \u003e /dev/null 2\u003e\u00261\ncat /root/.ssh/id_rsa.pub",
      "dateUpdated": "Jan 26, 2016 12:30:30 PM",
      "config": {
        "colWidth": 6.0,
        "editorMode": "ace/mode/sh",
        "tableHide": false,
        "title": true,
        "graph": {
          "mode": "table",
          "height": 300.0,
          "optionOpen": false,
          "keys": [],
          "values": [],
          "groups": [],
          "scatter": {}
        },
        "enabled": true,
        "editorHide": false
      },
      "settings": {
        "params": {},
        "forms": {}
      },
      "jobName": "paragraph_1451360750048_66464899",
      "id": "20151229-034550_784330896",
      "dateCreated": "Dec 29, 2015 3:45:50 AM",
      "dateStarted": "Jan 26, 2016 12:30:30 PM",
      "dateFinished": "Jan 26, 2016 12:30:31 PM",
      "status": "FINISHED",
      "errorMessage": "",
      "progressUpdateIntervalMs": 500
    },
    {
      "title": "02. Clone notebook",
      "text": "%sh\nrm -rf $(find notebook -maxdepth 1 -mindepth 1)\ngit clone --depth 1 git@bitbucket.org:namikingsoft/zeppelin-notebook.git notebook\n# After restart or recreate container",
      "dateUpdated": "Jan 26, 2016 12:30:47 PM",
      "config": {
        "colWidth": 6.0,
        "editorMode": "ace/mode/sh",
        "tableHide": false,
        "title": true,
        "graph": {
          "mode": "table",
          "height": 300.0,
          "optionOpen": false,
          "keys": [],
          "values": [],
          "groups": [],
          "scatter": {}
        },
        "enabled": true
      },
      "settings": {
        "params": {},
        "forms": {}
      },
      "jobName": "paragraph_1451360750049_66080150",
      "id": "20151229-034550_314504324",
      "dateCreated": "Dec 29, 2015 3:45:50 AM",
      "dateStarted": "Jan 26, 2016 12:30:47 PM",
      "dateFinished": "Jan 26, 2016 12:30:52 PM",
      "status": "FINISHED",
      "errorMessage": "",
      "progressUpdateIntervalMs": 500
    },
    {
      "text": "// Update first notebook",
      "dateUpdated": "Dec 29, 2015 3:45:50 AM",
      "config": {
        "colWidth": 12.0,
        "editorMode": "ace/mode/scala",
        "graph": {
          "mode": "table",
          "height": 300.0,
          "optionOpen": false,
          "keys": [],
          "values": [],
          "groups": [],
          "scatter": {}
        }
      },
      "settings": {
        "params": {},
        "forms": {}
      },
      "jobName": "paragraph_1451360750053_64541154",
      "id": "20151229-034550_781211097",
      "dateCreated": "Dec 29, 2015 3:45:50 AM",
      "status": "READY",
      "errorMessage": "",
      "progressUpdateIntervalMs": 500
    },
    {
      "title": "01. Clone First Notebook",
      "text": "%sh\nrm -rf $(find notebook -maxdepth 1 -mindepth 1)\ngit clone --depth 1 git@bitbucket.org:namikingsoft/zeppelin-notebook-first.git notebook\n# After restart or recreate container",
      "dateUpdated": "Jan 26, 2016 12:33:44 PM",
      "config": {
        "colWidth": 12.0,
        "editorMode": "ace/mode/sh",
        "title": true,
        "graph": {
          "mode": "table",
          "height": 300.0,
          "optionOpen": false,
          "keys": [],
          "values": [],
          "groups": [],
          "scatter": {}
        },
        "enabled": true
      },
      "settings": {
        "params": {},
        "forms": {}
      },
      "jobName": "paragraph_1451360750054_65695401",
      "id": "20151229-034550_246019477",
      "dateCreated": "Dec 29, 2015 3:45:50 AM",
      "dateStarted": "Jan 26, 2016 12:33:44 PM",
      "dateFinished": "Jan 26, 2016 12:33:50 PM",
      "status": "FINISHED",
      "errorMessage": "",
      "progressUpdateIntervalMs": 500
    },
    {
      "title": "02. Setup Git User",
      "text": "%sh\ngit config --global user.name \"Mr.Test\"\ngit config --global user.email test@example.com",
      "dateUpdated": "Jan 26, 2016 12:35:15 PM",
      "config": {
        "colWidth": 6.0,
        "editorMode": "ace/mode/sh",
        "title": true,
        "graph": {
          "mode": "table",
          "height": 300.0,
          "optionOpen": false,
          "keys": [],
          "values": [],
          "groups": [],
          "scatter": {}
        },
        "enabled": true
      },
      "settings": {
        "params": {},
        "forms": {}
      },
      "jobName": "paragraph_1451360750055_65310652",
      "id": "20151229-034550_1606664096",
      "dateCreated": "Dec 29, 2015 3:45:50 AM",
      "dateStarted": "Jan 26, 2016 12:34:58 PM",
      "dateFinished": "Jan 26, 2016 12:34:59 PM",
      "status": "FINISHED",
      "errorMessage": "",
      "progressUpdateIntervalMs": 500
    },
    {
      "title": "03. Push First Notebook",
      "text": "%sh\ncd notebook\ngit add --all\ngit commit -m \"Update notebook: $(date)\"\ngit push origin master",
      "dateUpdated": "Jan 26, 2016 12:35:19 PM",
      "config": {
        "colWidth": 6.0,
        "editorMode": "ace/mode/sh",
        "title": true,
        "graph": {
          "mode": "table",
          "height": 300.0,
          "optionOpen": false,
          "keys": [],
          "values": [],
          "groups": [],
          "scatter": {}
        },
        "enabled": true
      },
      "settings": {
        "params": {},
        "forms": {}
      },
      "jobName": "paragraph_1451360750056_63386907",
      "id": "20151229-034550_977041928",
      "dateCreated": "Dec 29, 2015 3:45:50 AM",
      "dateStarted": "Jan 26, 2016 12:33:33 PM",
      "dateFinished": "Jan 26, 2016 12:33:41 PM",
      "status": "FINISHED",
      "errorMessage": "",
      "progressUpdateIntervalMs": 500
    },
    {
      "dateUpdated": "Dec 29, 2015 3:45:50 AM",
      "config": {},
      "settings": {
        "params": {},
        "forms": {}
      },
      "jobName": "paragraph_1451360750057_63002159",
      "id": "20151229-034550_372166155",
      "dateCreated": "Dec 29, 2015 3:45:50 AM",
      "status": "READY",
      "errorMessage": "",
      "progressUpdateIntervalMs": 500
    }
  ],
  "name": "00. First Notebook",
  "id": "2B9Q4DKRS",
  "angularObjects": {
    "2BATWXYC8": [],
    "2B8ZFYF88": [],
    "2BB9D7KD5": [],
    "2B9RU7F1X": [],
    "2BAHKBHTY": [],
    "2BB8RZ72M": [],
    "2BB197RWH": [],
    "2B914P6F7": [],
    "2BCU9HD7P": [],
    "2BAYBBNE4": [],
    "2BBVA7MJC": [],
    "2BASYQM3W": [],
    "2BBSVX7XX": [],
    "2B9CRDH5S": []
  },
  "config": {},
  "info": {}
}